<?xml version="1.0" standalone="no"?>
<!DOCTYPE svg PUBLIC "-//W3C//DTD SVG 1.1//EN" "http://www.w3.org/Graphics/SVG/1.1/DTD/svg11.dtd" >
<svg xmlns="http://www.w3.org/2000/svg">
<metadata>Generated by IcoMoon</metadata>
<defs>
<font id="icomoon" horiz-adv-x="1024">
<font-face units-per-em="1024" ascent="960" descent="-64" />
<missing-glyph horiz-adv-x="1024" />
<glyph unicode="&#x20;" horiz-adv-x="512" d="" />
<glyph unicode="&#xe151;" glyph-name="mail-read" d="M512 384.667l352 220-352 206-352-206zM938 596.667v-426c0-46-38-86-84-86h-684c-46 0-84 40-84 86v426c0 30 16 60 40 74l386 226 386-226c24-14 40-44 40-74z" />
<glyph unicode="&#xe159;" glyph-name="mail-unread" d="M854 596.667v86l-342-214-342 214v-86l342-212zM854 768.667c46 0 84-40 84-86v-512c0-46-38-86-84-86h-684c-46 0-84 40-84 86v512c0 46 38 86 84 86h684z" />
<glyph unicode="&#xe86c;" glyph-name="circle-check" d="M426 212.667l384 384-60 62-324-324-152 152-60-60zM512 852.667c236 0 426-190 426-426s-190-426-426-426-426 190-426 426 190 426 426 426z" />
<glyph unicode="&#xe8f4;" glyph-name="visible" d="M512 554.667c70 0 128-58 128-128s-58-128-128-128-128 58-128 128 58 128 128 128zM512 212.667c118 0 214 96 214 214s-96 214-214 214-214-96-214-214 96-214 214-214zM512 746.667c214 0 396-132 470-320-74-188-256-320-470-320s-396 132-470 320c74 188 256 320 470 320z" />
<glyph unicode="&#xe900;" glyph-name="circle-cross" d="M512 890.88c-237.517 0-430.080-192.563-430.080-430.080s192.563-430.080 430.080-430.080 430.080 192.563 430.080 430.080c0 237.517-192.563 430.080-430.080 430.080zM757.197 304.077l-88.525-88.525-156.672 156.723-156.723-156.672-88.525 88.525 156.774 156.672-156.723 156.723 88.525 88.474 156.672-156.672 156.723 156.723 88.525-88.525-156.774-156.723 156.723-156.723z" />
<glyph unicode="&#xe901;" glyph-name="circle-plus" d="M512 890.88c-237.517 0-430.080-192.563-430.080-430.080s192.563-430.080 430.080-430.080 430.080 192.563 430.080 430.080c0 237.517-192.563 430.080-430.080 430.080zM768 409.6h-204.8v-204.8h-102.4v204.8h-204.8v102.4h204.8v204.8h102.4v-204.8h204.8v-102.4z" />
<glyph unicode="&#xe902;" glyph-name="arrow-down" d="M891.802 660.019c13.926 13.722 36.301 13.722 50.125 0s13.875-35.891 0-49.613l-404.89-400.896c-13.824-13.722-36.198-13.722-50.125 0l-404.89 400.896c-13.824 13.722-13.824 35.891 0 49.613 13.875 13.722 36.301 13.722 50.125 0l379.853-365.619 379.802 365.619z" />
<glyph unicode="&#xe903;" glyph-name="arrow-left" d="M711.219 80.998c13.722-13.926 13.722-36.301 0-50.125s-35.891-13.875-49.613 0l-400.896 404.89c-13.722 13.824-13.722 36.198 0 50.125l400.896 404.89c13.722 13.824 35.891 13.824 49.613 0 13.722-13.875 13.722-36.301 0-50.125l-365.619-379.853 365.619-379.802z" />
<glyph unicode="&#xe904;" glyph-name="arrow-right" d="M678.4 460.8l-365.619 379.904c-13.722 13.824-13.722 36.198 0 50.125 13.722 13.824 35.891 13.824 49.613 0l400.896-404.89c13.722-13.875 13.722-36.301 0-50.125l-400.896-404.89c-13.722-13.875-35.891-13.824-49.613 0-13.722 13.773-13.722 36.198 0 50.125l365.619 379.75z" />
<glyph unicode="&#xe905;" glyph-name="arrow-up" d="M132.198 261.581c-13.926-13.722-36.301-13.722-50.125 0s-13.875 35.891 0 49.613l404.89 400.896c13.824 13.722 36.198 13.722 50.125 0l404.89-400.896c13.824-13.722 13.824-35.891 0-49.613-13.875-13.722-36.301-13.722-50.074 0l-379.904 365.619-379.802-365.619z" />
<glyph unicode="&#xe906;" glyph-name="search" d="M898.304 180.89l-193.485 193.485c29.184 47.872 45.978 104.192 45.978 164.352 0 174.95-151.603 326.502-326.554 326.502-174.95 0.051-316.723-141.773-316.723-316.723 0-174.899 151.603-326.502 326.502-326.502 58.214 0 112.64 15.821 159.488 43.213l194.509-194.611c19.046-18.995 49.92-18.995 68.915 0l48.282 48.282c18.995 18.995 12.083 43.008-6.912 62.003zM205.005 548.506c0 121.139 98.15 219.29 219.238 219.29 121.139 0 229.069-107.878 229.069-229.069 0-121.088-98.202-219.29-219.29-219.29-121.139 0.051-229.018 107.981-229.018 229.069z" />
<glyph unicode="&#xe907;" glyph-name="pencil" d="M752.128 836.557c-96.973 70.605-165.99 69.069-192.205 64.819-7.373-1.178-13.568-5.427-17.92-11.418l-352.41-486.246c-14.182-19.558-22.374-42.803-23.654-66.918l-15.155-287.949c-1.075-20.736 19.558-35.738 38.912-28.314l269.107 102.912c22.682 8.704 42.394 23.808 56.627 43.469l352.256 486.093c4.557 6.298 6.4 13.978 5.12 21.658-4.301 26.931-24.934 92.262-120.678 161.894zM459.622 180.992l-104.602-40.397c-4.096-1.587-8.653-0.307-11.315 3.174-13.466 17.152-29.491 34.15-55.040 52.736-25.549 18.534-46.643 28.57-67.072 36.147-4.096 1.536-6.707 5.427-6.451 9.83l6.246 111.923 28.109 38.656c0 0 62.925 8.653 145.050-51.098 82.022-59.699 93.235-122.266 93.235-122.266l-28.16-38.707z" />
<glyph unicode="&#xe908;" glyph-name="star" d="M512 906.24l122.266-344.166h328.294l-267.878-202.138 95.795-354.714-278.477 212.685-278.426-212.685 95.744 354.714-267.93 202.138h328.294l122.317 344.166z" />
<glyph unicode="&#xe909;" glyph-name="dot" d="M512 819.2c-197.939 0-358.4-160.41-358.4-358.4 0-197.888 160.461-358.4 358.4-358.4s358.4 160.512 358.4 358.4c0 197.99-160.461 358.4-358.4 358.4z" />
<glyph unicode="&#xf219;" glyph-name="new-this-week" horiz-adv-x="1170" d="M121.143 512l356-380-171.429 380h-184.571zM585.143 70.857l199.429 441.143h-398.857zM307.429 585.143l116.571 219.429h-149.714l-164.571-219.429h197.714zM693.143 132l356 380h-184.571zM390.286 585.143h389.714l-116.571 219.429h-156.571zM862.857 585.143h197.714l-164.571 219.429h-149.714zM943.429 862.857l219.429-292.571q8-10.286 7.429-23.714t-9.714-23.143l-548.571-585.143q-10.286-11.429-26.857-11.429t-26.857 11.429l-548.571 585.143q-9.143 9.714-9.714 23.143t7.429 23.714l219.429 292.571q10.286 14.857 29.143 14.857h658.286q18.857 0 29.143-14.857z" />
</font></defs></svg>